{
  "topics": [
    {
      "id": 1,
      "name": "Мелкая бытовая техника"
    },
    {
      "id": 2,
      "name": "Крупная бытовая техника"
    },
    {
      "id": 3,
      "name": "Сантехника"
    },
    {
      "id": 4,
      "name": "Ремонт"
    },
    {
      "id": 5,
      "name": "Сад"
    },
    {
      "id": 6,
      "name": "Спорт"
    },
    {
      "id": 7,
      "name": "Книги"
    },
    {
      "id": 8,
      "name": "Детский отдел"
    },
    {
      "id": 9,
      "name": "Алкоголь"
    },
    {
      "id": 10,
      "name": "Красота и здоровье"
    }
  ],
  "products": [
    {
      "id": 1,
      "name": "Test",
      "description": "Bla bla",
      "price": 100,
      "count": 2,
      "category": {
        "id": 2,
        "name": "Крупная бытовая техника"
      }
    },
    {
      "id": 2,
      "name": "new",
      "description": "Bla bla",
      "price": 100,
      "count": 2,
      "category": {
        "id": 2,
        "name": "Крупная бытовая техника"
      }
    },
    {
      "id": 3,
      "name": "car",
      "description": "Bla bla",
      "price": 100,
      "count": 2,
      "category": {
        "id": 2,
        "name": "Крупная бытовая техника"
      }
    },
    {
      "name": {},
      "description": {},
      "price": {},
      "count": {},
      "category": {
        "id": "1",
        "name": "Мелкая бытовая техника"
      },
      "id": 4
    },
    {
      "name": "1234",
      "description": "5678",
      "price": "98",
      "count": "33",
      "category": {
        "id": "9",
        "name": "Алкоголь"
      },
      "id": 5
    },
    {
      "name": "fdsfdsf",
      "description": "sdfasdf",
      "price": "12",
      "count": "12",
      "category": {
        "id": "3",
        "name": "Сантехника"
      },
      "id": 6
    },
    {
      "name": "",
      "description": "",
      "price": "",
      "count": "",
      "category": {
        "id": "2",
        "name": "Крупная бытовая техника"
      },
      "id": 7
    }
  ]
}